<?xml version="1.0" encoding="utf-8"?>
<!-- Generator: Adobe Illustrator 17.0.1, SVG Export Plug-In . SVG Version: 6.00 Build 0)  -->
<!DOCTYPE svg PUBLIC "-//W3C//DTD SVG 1.1//EN" "http://www.w3.org/Graphics/SVG/1.1/DTD/svg11.dtd">
<svg version="1.1" id="Layer_1" xmlns="http://www.w3.org/2000/svg" xmlns:xlink="http://www.w3.org/1999/xlink" x="0px" y="0px"
	 width="1822px" height="1593px" viewBox="0 0 1822 1593" enable-background="new 0 0 1822 1593" xml:space="preserve">
<linearGradient id="SVGID_1_" gradientUnits="userSpaceOnUse" x1="455.619" y1="632.1637" x2="886.6681" y2="787.7192">
	<stop  offset="0" style="stop-color:#FFFFFF"/>
	<stop  offset="1" style="stop-color:#E0E3E5"/>
</linearGradient>
<rect opacity="0.8" fill="url(#SVGID_1_)" width="1822" height="1593"/>
<linearGradient id="SVGID_2_" gradientUnits="userSpaceOnUse" x1="1040.3387" y1="844.431" x2="1433.0404" y2="989.9603">
	<stop  offset="0" style="stop-color:#FFFFFF"/>
	<stop  offset="1" style="stop-color:#E0E3E5"/>
</linearGradient>
<polygon opacity="0.8" fill="url(#SVGID_2_)" points="0,1474.389 0,1593 1822,1593 1822,0 1095.019,0 "/>
<polygon fill="#FFFFFF" points="1822,1593 1822,0 1798.09,0 614.979,1593 "/>
<linearGradient id="SVGID_3_" gradientUnits="userSpaceOnUse" x1="1026.9761" y1="592.0175" x2="846.2893" y2="910.5942">
	<stop  offset="0" style="stop-color:#E0E3E5"/>
	<stop  offset="1" style="stop-color:#FFFFFF"/>
</linearGradient>
<polygon opacity="0.4" fill="url(#SVGID_3_)" points="1822,1429.23 362.257,0 0,0 0,1593 1822,1593 "/>
</svg>
